<svg xmlns="http://www.w3.org/2000/svg" xmlns:xlink="http://www.w3.org/1999/xlink" width="0" height="0" style="position:absolute">
    <symbol id="sale01"  viewBox="0 0 25 25">
        <g>
            <circle cx="12.5" cy="12.5" r="12.5" fill="#ff6749"/>
            <path fill="#ffffff" d="M8.773,17.840 C8.687,17.940 8.564,17.991 8.439,17.991 C8.341,17.991 8.243,17.959 8.161,17.894 C7.977,17.744 7.952,17.478 8.106,17.298 L16.786,7.161 C16.939,6.982 17.212,6.957 17.397,7.107 C17.581,7.256 17.606,7.522 17.453,7.702 L8.773,17.840 ZM10.175,11.233 C8.979,11.233 8.005,10.285 8.005,9.121 C8.005,7.956 8.979,7.009 10.175,7.009 C11.372,7.009 12.345,7.956 12.345,9.121 C12.345,10.285 11.372,11.233 10.175,11.233 ZM10.175,7.854 C9.458,7.854 8.873,8.422 8.873,9.121 C8.873,9.820 9.458,10.388 10.175,10.388 C10.893,10.388 11.477,9.820 11.477,9.121 C11.477,8.422 10.893,7.854 10.175,7.854 ZM15.817,13.767 C17.014,13.767 17.987,14.715 17.987,15.879 C17.987,17.044 17.014,17.991 15.817,17.991 C14.621,17.991 13.647,17.044 13.647,15.879 C13.647,14.715 14.621,13.767 15.817,13.767 ZM15.817,17.147 C16.535,17.147 17.119,16.578 17.119,15.879 C17.119,15.181 16.535,14.612 15.817,14.612 C15.099,14.612 14.515,15.181 14.515,15.879 C14.515,16.578 15.099,17.147 15.817,17.147 Z" />
        </g>
    </symbol>
    <symbol id="skype" viewBox="0 0 26 26" >
        <path d="M18.0759 26C16.6534 26 15.269 25.6242 14.0517 24.9099C13.6681 24.9437 13.2836 24.9607 12.9001 24.9607C6.17158 24.9607 0.697412 19.5305 0.697412 12.851C0.697412 12.3364 0.731877 11.8142 0.797381 11.2963C0.274956 10.2316 0 9.04754 0 7.85929C0 3.52595 3.55345 0 7.92327 0C9.14658 0 10.3646 0.286093 11.4578 0.826852C11.9345 0.771053 12.4181 0.743984 12.9 0.743984C19.6311 0.743984 25.1035 6.17581 25.1035 12.8527C25.1035 13.3487 25.0724 13.848 25.0104 14.3406C25.6586 15.5018 26 16.8103 26 18.139C25.9983 22.4741 22.4449 26 18.0759 26ZM14.35 23.6319L14.5379 23.7487C15.5965 24.4122 16.8207 24.7609 18.0759 24.7609C21.7518 24.7609 24.738 21.7919 24.738 18.139C24.738 16.9559 24.4173 15.793 23.8138 14.7773L23.7052 14.5945L23.7345 14.3829C23.8069 13.8768 23.8448 13.3639 23.8448 12.8544C23.8448 6.86051 18.9345 1.98302 12.9 1.98302C12.4077 1.98302 11.9112 2.01772 11.4259 2.08203L11.2233 2.1057L11.0431 2.011C10.0862 1.50657 9.0069 1.23741 7.92327 1.23741C4.24913 1.23741 1.26204 4.20637 1.26204 7.85929C1.26204 8.91805 1.51983 9.97179 2.01028 10.9095L2.10255 11.0847L2.0724 11.2785C1.9965 11.8024 1.95772 12.3314 1.95772 12.8528C1.95772 18.8466 6.86722 23.725 12.9 23.725C13.3077 23.725 13.7215 23.7014 14.1293 23.6573L14.35 23.6319Z"/>
        <path d="M13.0422 21C11.2377 21 9.75359 20.5475 8.63348 19.6523C7.56644 18.8217 7.00004 17.7551 7.00004 16.5706C7.00004 15.9096 7.21748 15.3295 7.62919 14.8883C8.06858 14.4197 8.67464 14.1837 9.30977 14.2306C7.334 13.118 7 11.2563 7 10.1268C7 8.40735 7.68747 7.0119 8.98544 6.0924C10.0241 5.36766 11.3131 5 12.8233 5C14.1347 5 15.3625 5.34257 16.4699 6.0197C17.8268 6.84872 18.5143 7.91044 18.5143 9.17489C18.5143 9.87145 18.2468 10.4855 17.7641 10.9041C17.4129 11.2087 17.0079 11.3888 16.5535 11.4454C18.6458 12.5669 19 14.5392 19 15.7464C19 17.3301 18.4605 18.6148 17.3905 19.5634C16.3473 20.5153 14.8827 21 13.0422 21ZM9.16252 15.4071C8.84868 15.4071 8.59832 15.5121 8.39584 15.7286C8.19258 15.9468 8.09321 16.2232 8.09321 16.5689C8.09321 17.3802 8.48029 18.0751 9.27762 18.6988C10.2094 19.4422 11.4753 19.8187 13.0422 19.8187C14.6182 19.8187 15.8482 19.4277 16.694 18.6552C17.513 17.9264 17.9076 16.9762 17.9076 15.7464C17.9076 13.7967 16.8674 12.5476 14.817 12.0361L12.5169 11.4705C11.2137 11.1522 10.5801 10.6592 10.5801 9.96277C10.5801 9.47477 10.7646 9.07398 11.1293 8.77263C11.4872 8.47529 11.9953 8.32419 12.6379 8.32419C13.3882 8.32419 14.0091 8.50355 14.4821 8.85424C14.5315 8.89055 14.6884 9.00612 15.3654 9.79876C15.6404 10.1252 15.9288 10.2836 16.2427 10.2836C16.573 10.2836 16.8465 10.1842 17.0766 9.98219C17.3038 9.78579 17.4189 9.51429 17.4189 9.17493C17.4189 8.36775 16.9212 7.65269 15.9319 7.04833C14.9888 6.4746 13.9434 6.18292 12.8218 6.18292C11.5268 6.18292 10.4358 6.48594 9.57871 7.08471C8.57816 7.79328 8.09171 8.78959 8.09171 10.1268C8.09171 11.9319 9.06462 13.118 10.9821 13.6545L14.0832 14.5134C14.9037 14.7461 15.3176 15.2342 15.3176 15.9662C15.3176 16.4526 15.1159 16.8744 14.7153 17.2219C14.2924 17.6016 13.7402 17.7875 13.0333 17.7875C12.2277 17.7875 11.5657 17.5661 11.062 17.1313C11.0097 17.0861 10.8707 16.9665 10.1466 15.9969C9.8515 15.5994 9.53014 15.4071 9.16252 15.4071ZM10.5232 14.7429C10.6914 14.8851 10.8506 15.0547 10.9993 15.2536C11.5978 16.0519 11.7442 16.2037 11.7599 16.2199C12.0551 16.4752 12.4743 16.6045 13.0347 16.6045C13.4786 16.6045 13.8029 16.506 14.0293 16.3039C14.2266 16.1327 14.2266 16.0325 14.2266 15.9662C14.2266 15.8805 14.2266 15.7755 13.8104 15.6575L10.713 14.7995C10.6488 14.7817 10.5845 14.7623 10.5232 14.7429ZM11.6785 9.88033C11.7809 9.97081 12.0902 10.1551 12.759 10.3167L14.7572 10.8096C14.6914 10.7434 14.6257 10.6738 14.5629 10.5995C14.0107 9.9531 13.8627 9.82864 13.856 9.82385C13.578 9.61536 13.1648 9.50791 12.638 9.50791C12.2524 9.50791 11.9528 9.5806 11.7937 9.71314C11.7181 9.77371 11.689 9.81893 11.6785 9.88033Z"/>
    </symbol>
    <symbol id="viber" viewBox="0 0 29 31">
        <path d="M25.2691 4.24431C23.0242 1.99691 19.395 0.907961 14.4803 1.00609C9.52462 1.10561 6.21202 1.99384 4.05538 3.80148C1.97018 5.54906 0.999023 8.10629 0.999023 11.8492V15.6691C0.999023 20.0878 3.31769 24.9456 7.74921 25.6806C8.26081 25.7661 8.74277 25.4109 8.82584 24.8883C8.90892 24.366 8.5616 23.8738 8.04999 23.7889C4.68922 23.2315 2.87578 19.1893 2.87578 15.6691V11.8492C2.87578 6.48226 4.82323 3.11678 14.517 2.92206C18.9118 2.83314 22.0837 3.73913 23.955 5.61268C25.4132 7.07292 26.1221 9.11283 26.1221 11.8492V15.6691C26.1221 21.4536 23.5796 24.005 17.0585 24.7562H12.4345C12.1856 24.7562 11.9469 24.8572 11.771 25.0369L8.5128 28.3641C8.14633 28.7383 8.14633 29.3451 8.5128 29.7193C8.69597 29.9063 8.9362 30 9.17629 30C9.41639 30 9.65662 29.9065 9.83979 29.7193L12.8232 26.6727H17.111C17.1455 26.6727 17.1802 26.6708 17.2146 26.6668C20.9466 26.2436 23.5022 25.2517 25.257 23.5453C27.1021 21.7509 27.999 19.1747 27.999 15.669V11.8492C27.999 8.61684 27.0805 6.0582 25.2691 4.24431Z" stroke="white" stroke-width="0.5"/>
        <path d="M14.9955 6.99249C14.9956 6.99249 14.9956 6.99249 14.9959 6.99249C16.6013 6.99249 18.1106 7.61777 19.2459 8.75303C20.3813 9.88843 21.0065 11.398 21.0064 13.0037C21.0064 13.5539 21.4524 14 22.0026 14C22.0027 14 22.0027 14 22.0027 14C22.5529 14 22.999 13.5541 22.999 13.0038C22.9992 10.8659 22.1666 8.85585 20.6549 7.34412C19.1433 5.83238 17.1337 5 14.9959 5C14.9957 5 14.9953 5 14.9952 5C14.445 5 13.999 5.44608 13.999 5.99631C13.9992 6.54641 14.4452 6.99249 14.9955 6.99249Z" stroke="white" stroke-width="0.5"/>
        <path d="M14.9052 10.8126C16.1629 10.8129 17.1863 11.8362 17.1864 13.0938C17.1865 13.5943 17.5922 14.0001 18.0928 14C18.5935 14 18.9991 13.5941 18.999 13.0936C18.9987 10.8367 17.1624 9.00036 14.9054 9H14.9053C14.4048 9 13.9991 9.40567 13.999 9.9062C13.999 10.4067 14.4047 10.8126 14.9052 10.8126Z"  stroke="white" stroke-width="0.5"/>
        <path d="M10.7779 12.2656C10.3309 12.5508 10.2163 13.1203 10.5218 13.5374C10.8273 13.9545 11.4375 14.0614 11.8844 13.7763C12.2359 13.552 13.0592 13.0267 13.0015 11.9764C12.9649 11.3479 12.3574 10.4504 11.8542 9.80814C11.1183 8.86845 10.484 8.30246 9.97301 8.12702C9.49588 7.96121 8.99691 7.95767 8.48892 8.11677C7.43674 8.44765 6.6728 9.0456 6.27985 9.84597C5.89723 10.6251 5.90572 11.5205 6.30456 12.4359C7.24654 14.5927 8.56527 16.481 10.2329 18.0564C11.912 19.6045 13.9351 20.8353 16.2469 21.715C16.7472 21.905 17.2421 22 17.7178 22C18.174 22 18.6126 21.9126 19.0212 21.7378C19.8787 21.3709 20.5193 20.6581 20.8742 19.6748C21.0441 19.2018 21.0403 18.7363 20.8641 18.2941C20.6748 17.8137 20.0683 17.2219 19.0616 16.535C18.3734 16.0654 17.4118 15.4984 16.7357 15.4641C15.6128 15.4114 15.0504 16.1785 14.8101 16.5065C14.5045 16.9237 14.6189 17.4931 15.0658 17.7785C15.5129 18.0638 16.1228 17.957 16.4286 17.5398C16.5353 17.3943 16.5962 17.3281 16.6311 17.2992C17.1814 17.4638 18.7507 18.5399 19.0332 18.9523C19.0402 18.9786 19.0417 19.0188 19.0156 19.0919C18.8919 19.4346 18.6507 19.8832 18.2043 20.0743C17.7861 20.2529 17.311 20.1433 16.9865 20.0202C14.915 19.2319 13.1064 18.1333 11.6193 16.7623C10.142 15.3666 8.96488 13.6787 8.12081 11.746C7.98852 11.4424 7.871 10.9987 8.06251 10.6088C8.26709 10.1921 8.74788 9.96687 9.11391 9.8517C9.19208 9.8273 9.23509 9.82864 9.26489 9.83535C9.70686 10.0995 10.8592 11.5633 11.0357 12.0771C11.0045 12.1092 10.9338 12.1662 10.7779 12.2656Z" stroke="white" stroke-width="0.5"/>
    </symbol>
    <symbol id="telegram" viewBox="0 0 31 27" >
        <path d="M24.3449 26C24.1184 26 23.8934 25.9354 23.7004 25.8093L16.4086 21.0423L12.4977 23.7544C12.191 23.967 11.7957 24.0205 11.4395 23.8978C11.0838 23.7748 10.8136 23.4908 10.7172 23.1387L8.75351 15.9664L1.73694 13.3807C1.29521 13.2179 1.00226 12.8106 0.99905 12.3548C0.995836 11.899 1.28297 11.4878 1.72255 11.3192L28.4021 1.08786C28.5232 1.0383 28.6513 1.00968 28.7805 1.00201C28.8267 0.999355 28.8731 0.999355 28.9192 1.00186C29.1867 1.0172 29.4495 1.12223 29.6546 1.31606C29.6759 1.33612 29.6961 1.35663 29.7152 1.37802C29.8851 1.56506 29.9785 1.79311 29.9961 2.02544C30.0004 2.08386 30 2.14301 29.9947 2.20216C29.991 2.24435 29.9847 2.28639 29.9759 2.32814L25.4725 25.1008C25.4001 25.4666 25.1417 25.7728 24.7848 25.9155C24.6432 25.9721 24.4937 26 24.3449 26ZM17.0489 18.7871L23.5441 23.0333L27.0482 5.31362L14.3924 17.0505L17.0183 18.7672C17.0288 18.7736 17.0389 18.7804 17.0489 18.7871ZM11.6418 17.8429L12.5115 21.0188L14.3852 19.7194L11.9317 18.1154C11.8177 18.041 11.72 17.9484 11.6418 17.8429ZM5.30545 12.3266L10.1234 14.1019C10.4685 14.229 10.729 14.5087 10.8233 14.853L11.4343 17.0847C11.4623 16.8273 11.5834 16.5851 11.78 16.4026L23.8392 5.21921L5.30545 12.3266Z" stroke="white"/>
    </symbol>
    <symbol id="whatsapp" viewBox="0 0 31 31">
        <path d="M29.999 15.1269C29.999 22.9285 23.6254 29.2529 15.7614 29.2529C13.2659 29.2529 10.9216 28.6146 8.88095 27.4969L0.999023 30L3.56833 22.4188C2.2728 20.2911 1.52669 17.7927 1.52669 15.126C1.52764 7.32445 7.89937 1 15.7633 1C23.6263 1.00189 29.999 7.3254 29.999 15.1269ZM15.7605 3.25252C9.16086 3.25252 3.79245 8.58027 3.79245 15.1298C3.79245 17.7284 4.63974 20.1341 6.07239 22.0916L4.57828 26.5011L9.17599 25.0401C11.0673 26.2808 13.3302 27.0033 15.7605 27.0033C22.3601 27.0033 27.7304 21.6765 27.7304 15.1269C27.7323 8.58027 22.3611 3.25252 15.7605 3.25252ZM22.9512 18.3809C22.8623 18.2381 22.6296 18.1511 22.2816 17.9771C21.9346 17.8031 20.2164 16.9662 19.8977 16.8527C19.5762 16.7364 19.3435 16.6778 19.1109 17.0248C18.8811 17.3719 18.2116 18.1511 18.0064 18.3837C17.8031 18.6154 17.5998 18.6447 17.2508 18.4736C16.9019 18.2977 15.7766 17.9346 14.4432 16.7553C13.4058 15.8362 12.7051 14.7042 12.5028 14.3572C12.2976 14.0111 12.482 13.8238 12.655 13.6517C12.811 13.4957 13.0039 13.247 13.1789 13.0437C13.3538 12.8423 13.4115 12.6995 13.5278 12.4678C13.6423 12.2361 13.5846 12.0347 13.4985 11.8598C13.4115 11.6858 12.7146 9.9836 12.4224 9.29044C12.1321 8.59823 11.8418 8.71266 11.6375 8.71266C11.4342 8.71266 11.2016 8.68429 10.9689 8.68429C10.7363 8.68429 10.358 8.76845 10.0394 9.1155C9.72068 9.46255 8.81854 10.2994 8.81854 12.0035C8.81854 13.7094 10.0677 15.3539 10.2427 15.5846C10.4186 15.8144 12.6578 19.4258 16.2049 20.8121C19.7539 22.1975 19.7539 21.7351 20.3932 21.6765C21.0343 21.6178 22.4585 20.8396 22.7478 20.032C23.0391 19.2206 23.0391 18.5256 22.9512 18.3809Z" stroke="white"/>
    </symbol>
    <symbol id="logo" viewBox="0 0 111 85">
        <path fill-rule="evenodd" clip-rule="evenodd" d="M55.4324 16.46L56.9524 19.35L60.1724 19.9001L57.8924 22.2401L58.3624 25.4801L55.4324 24.0301L52.5023 25.4801L52.9723 22.2401L50.6823 19.9001L53.9123 19.35L55.4324 16.46ZM55.5323 4.07994L63.4124 0.309912C63.9724 0.0399096 64.5724 -0.0100907 65.1324 0.10991C65.6924 0.239911 66.2124 0.559913 66.5924 1.03992L72.0225 7.88997L80.7525 7.90997C81.3725 7.90997 81.9425 8.11997 82.3825 8.47997C82.8325 8.83997 83.1625 9.34998 83.2925 9.94998L85.2126 18.47L93.0726 22.2801C93.6326 22.5501 94.0526 22.9901 94.3026 23.5101C94.5526 24.0301 94.6226 24.6301 94.4826 25.2301L93.3126 30.2701H107.683C109.433 30.2701 110.853 31.7001 110.853 33.4401V50.7503C110.853 52.5003 109.433 53.9203 107.683 53.9203H93.2026L94.3926 59.1803C94.5226 59.7803 94.4526 60.3803 94.2026 60.8903C93.9426 61.4103 93.5226 61.8503 92.9626 62.1104L85.0826 65.8804L83.1226 74.3904C82.9825 74.9904 82.6525 75.5005 82.2025 75.8605L82.1625 75.8804C81.7125 76.2205 81.1625 76.4205 80.5625 76.4205L71.8325 76.3904L66.3624 83.2105C65.9824 83.6905 65.4624 84.0005 64.9024 84.1305C64.3424 84.2505 63.7424 84.1905 63.1824 83.9205L55.3223 80.1105L47.4423 83.8805C46.8923 84.1505 46.2823 84.2005 45.7323 84.0805C45.1623 83.9505 44.6523 83.6305 44.2723 83.1505L38.8422 76.3005L30.1122 76.2804C29.4922 76.2804 28.9222 76.0704 28.4722 75.7104C28.0222 75.3504 27.6922 74.8404 27.5622 74.2404L25.6421 65.7204L17.7821 61.9104C17.2321 61.6403 16.8121 61.2003 16.5621 60.6803C16.3121 60.1603 16.2321 59.5603 16.3721 58.9603L17.5421 53.9203H3.17198C1.43196 53.9203 0.00195312 52.5003 0.00195312 50.7503V33.4401C0.00195312 31.7001 1.43196 30.2701 3.17198 30.2701H17.6521L16.4721 25.0101C16.3321 24.4101 16.4121 23.8101 16.6621 23.3001C16.9121 22.7801 17.3321 22.3401 17.8921 22.0801L25.7721 18.31L27.7422 9.79998C27.8722 9.19998 28.2022 8.68997 28.6522 8.33997L28.7022 8.30997C29.1422 7.96997 29.6922 7.76996 30.2922 7.76996L39.0322 7.79996L44.4923 0.979916C44.8823 0.499913 45.3923 0.189911 45.9623 0.0599097C46.5223 -0.0600911 47.1223 -9.0683e-05 47.6723 0.269911L55.5323 4.07994ZM10.172 46.2402H11.962V40.8602L14.2721 44.3702H14.3121L16.6521 40.8302V46.2402H18.4621V37.9502H16.4921L14.3121 41.4602L12.132 37.9502H10.172V46.2402ZM20.4521 46.2402H26.7621V44.6202H22.2621V42.8802H26.1721V41.2502H22.2621V39.5702H26.7121V37.9502H20.4521V46.2402ZM28.3922 46.2402H31.6222C34.2322 46.2402 36.0322 44.4302 36.0322 42.1002C36.0322 39.7402 34.2322 37.9502 31.6222 37.9502H28.3922V46.2402ZM30.2122 44.5902V39.6002H31.6222C33.1122 39.6002 34.1222 40.6302 34.1222 42.1002C34.1222 43.5902 33.1122 44.5902 31.6222 44.5902H30.2122ZM37.2522 43.4302H40.9022V41.7002H37.2522V43.4302ZM42.4923 46.2402H44.3123V43.7102L45.2723 42.7102L47.8423 46.2402H50.0323L46.5023 41.4702L49.8823 37.9502H47.6723L44.3123 41.5702V37.9502H42.4923V46.2402ZM54.5123 46.3802C57.0724 46.3802 58.9324 44.4502 58.9324 42.1002C58.9324 39.7102 57.0924 37.8102 54.5323 37.8102C51.9723 37.8102 50.1123 39.7402 50.1123 42.1002C50.1123 44.4802 51.9523 46.3802 54.5123 46.3802ZM54.5323 44.7002C53.0623 44.7002 52.0223 43.5202 52.0223 42.1002C52.0223 40.6502 53.0423 39.4902 54.5123 39.4902C55.9824 39.4902 57.0224 40.6702 57.0224 42.1002C57.0224 43.5402 56.0024 44.7002 54.5323 44.7002ZM60.5524 46.2402H62.3524V40.9702L66.3724 46.2402H67.9224V37.9502H66.1224V43.0502L62.2324 37.9502H60.5524V46.2402ZM71.8425 46.2402H73.6625V39.6302H76.1925V37.9502H69.3224V39.6302H71.8425V46.2402ZM75.8125 46.2402H77.6725L78.4325 44.3802H81.9325L82.6925 46.2402H84.6026L81.0525 37.8902H79.3625L75.8125 46.2402ZM79.0825 42.7702L80.1825 40.0802L81.2825 42.7702H79.0825ZM85.8826 46.2402H87.7026V43.7102L88.6626 42.7102L91.2326 46.2402H93.4226L89.8926 41.4702L93.2726 37.9502H91.0726L87.7026 41.5702V37.9502H85.8826V46.2402ZM96.3426 46.2402H98.1627V39.6302H100.693V37.9502H93.8226V39.6302H96.3426V46.2402ZM18.9721 30.2701H20.2121L19.1021 25.3801C18.9721 24.7801 19.2621 24.1901 19.8121 23.9301L27.3821 20.3101C27.5522 20.2301 27.7022 20.1101 27.8322 19.9601C27.9522 19.8101 28.0322 19.6301 28.0722 19.44L29.9622 11.27C30.0922 10.68 30.6122 10.27 31.2222 10.27L39.6122 10.3C39.7922 10.3 39.9722 10.26 40.1422 10.19C40.1522 10.18 40.1522 10.18 40.1622 10.18L40.1922 10.17C40.3522 10.08 40.4922 9.95998 40.6122 9.81998L45.8523 3.26993C46.2323 2.79993 46.8723 2.64993 47.4223 2.91993L54.9723 6.57996C55.1523 6.66996 55.3323 6.70996 55.5323 6.70996C55.7224 6.70996 55.9024 6.66996 56.0824 6.57996L63.6424 2.95993C64.1924 2.69993 64.8324 2.84993 65.2124 3.32993L70.4325 9.89998C70.5525 10.05 70.6925 10.18 70.8725 10.26C71.0425 10.35 71.2325 10.38 71.4225 10.38L79.8125 10.4C80.4225 10.4 80.9325 10.82 81.0725 11.41L82.9125 19.59C82.9525 19.7801 83.0325 19.9601 83.1525 20.1101C83.2725 20.2701 83.4225 20.3801 83.6026 20.4601L91.1426 24.1201C91.6926 24.3901 91.9826 24.9801 91.8426 25.5701L90.7526 30.2701H91.9926L93.2226 24.9401C93.3026 24.6301 93.2626 24.3201 93.1426 24.0601C93.0126 23.8001 92.8026 23.5801 92.5126 23.4401L84.3726 19.5C84.2026 19.42 84.0726 19.26 84.0226 19.06L82.0425 10.24C81.9725 9.92998 81.8025 9.66998 81.5825 9.48998C81.3525 9.30998 81.0625 9.19998 80.7525 9.19998L71.7425 9.17997C71.5425 9.18997 71.3325 9.10997 71.2025 8.93997L65.5824 1.84992C65.3824 1.59992 65.1224 1.43992 64.8424 1.36992C64.5624 1.30992 64.2524 1.33992 63.9724 1.46992L55.8424 5.35995C55.6724 5.45995 55.4524 5.46995 55.2523 5.37995L47.1123 1.42992C46.8323 1.28992 46.5223 1.25992 46.2423 1.31992C45.9623 1.37992 45.6923 1.53992 45.5023 1.78992L39.8422 8.84997C39.7222 8.99997 39.5422 9.08997 39.3422 9.08997L30.2922 9.05997C29.9922 9.05997 29.7122 9.15997 29.4822 9.31998L29.4622 9.34998C29.2322 9.52998 29.0622 9.77998 28.9922 10.09L26.9621 18.9C26.9121 19.09 26.7921 19.25 26.6121 19.34L18.4421 23.2401C18.1621 23.3801 17.9521 23.5901 17.8221 23.8601C17.6921 24.1201 17.6521 24.4201 17.7221 24.7301L18.9721 30.2701ZM21.5321 30.2701H26.7721C28.3422 26.4701 30.6522 23.0401 33.5122 20.1801C39.1222 14.57 46.8723 11.1 55.4324 11.1C63.9924 11.1 71.7425 14.57 77.3425 20.1801C80.2125 23.0401 82.5125 26.4701 84.0926 30.2701H89.4326L90.5826 25.2801L83.0325 21.6301C82.6725 21.4501 82.3725 21.2101 82.1425 20.9201C81.9025 20.6201 81.7425 20.2701 81.6525 19.8801L79.8025 11.7L71.4225 11.67C71.0225 11.67 70.6425 11.59 70.3025 11.42C69.9625 11.26 69.6625 11.02 69.4125 10.7L64.2024 4.12994L56.6424 7.74996C56.2724 7.91997 55.9024 8.00997 55.5224 8.00997C55.1423 8.00997 54.7723 7.91997 54.4123 7.73996L46.8623 4.07994L41.6123 10.63C41.3622 10.94 41.0622 11.18 40.7222 11.34L40.6622 11.37C40.3422 11.51 39.9822 11.59 39.6022 11.59L31.2222 11.56L29.3322 19.7301C29.2422 20.1301 29.0722 20.4701 28.8322 20.7701C28.6022 21.0601 28.3022 21.3001 27.9322 21.4701L20.3721 25.0901L21.5321 30.2701ZM28.1722 30.2701H82.6825C81.1825 26.8201 79.0525 23.7101 76.4325 21.0901C71.0625 15.72 63.6324 12.39 55.4324 12.39C47.2223 12.39 39.8022 15.72 34.4222 21.0901C31.8022 23.7101 29.6722 26.8201 28.1722 30.2701ZM91.8826 53.9203H90.6526L91.7526 58.8103C91.8826 59.4103 91.6026 60.0003 91.0526 60.2603L83.4826 63.8804C83.3026 63.9604 83.1525 64.0804 83.0325 64.2304C82.9125 64.3804 82.8325 64.5604 82.7825 64.7504L80.9025 72.9204C80.7625 73.5104 80.2525 73.9204 79.6325 73.9204L71.2525 73.8904C71.0625 73.8904 70.8925 73.9304 70.7225 74.0004C70.7125 74.0104 70.7025 74.0104 70.6925 74.0104L70.6725 74.0204C70.5025 74.1104 70.3625 74.2304 70.2525 74.3704L65.0024 80.9205C64.6224 81.3905 63.9824 81.5405 63.4324 81.2705L55.8824 77.6105C55.7124 77.5205 55.5224 77.4805 55.3323 77.4805C55.1323 77.4805 54.9523 77.5205 54.7823 77.6105L47.2123 81.2305C46.6623 81.4905 46.0223 81.3405 45.6423 80.8605L40.4322 74.2904C40.3122 74.1404 40.1622 74.0104 39.9922 73.9304C39.8122 73.8404 39.6222 73.8104 39.4322 73.8104L31.0522 73.7904C30.4422 73.7904 29.9222 73.3704 29.7922 72.7804L27.9522 64.6004C27.9022 64.4104 27.8322 64.2304 27.7122 64.0804C27.5821 63.9204 27.4321 63.8104 27.2621 63.7304L19.7121 60.0703C19.1621 59.8003 18.8821 59.2103 19.0121 58.6103L20.1021 53.9203H18.8621L17.6321 59.2503C17.5621 59.5603 17.5921 59.8703 17.7221 60.1303C17.8421 60.3903 18.0621 60.6103 18.3421 60.7503L26.4821 64.6904C26.6521 64.7704 26.7921 64.9304 26.8321 65.1304L28.8222 73.9604C28.8922 74.2604 29.0522 74.5204 29.2822 74.7004C29.5022 74.8804 29.7922 74.9904 30.1122 74.9904L39.1122 75.0104C39.3222 75.0004 39.5222 75.0804 39.6622 75.2504L45.2823 82.3405C45.4723 82.5905 45.7323 82.7505 46.0123 82.8205C46.3023 82.8805 46.6023 82.8505 46.8923 82.7205L55.0123 78.8305C55.1923 78.7305 55.4123 78.7205 55.6024 78.8105L63.7424 82.7605C64.0324 82.9005 64.3324 82.9305 64.6224 82.8705C64.9024 82.8105 65.1624 82.6505 65.3624 82.4005L71.0225 75.3404C71.1325 75.1904 71.3225 75.1004 71.5225 75.1004L80.5625 75.1304C80.8725 75.1304 81.1525 75.0304 81.3725 74.8704L81.4025 74.8504C81.6225 74.6704 81.7925 74.4104 81.8625 74.1004L83.9025 65.2904C83.9426 65.1004 84.0626 64.9404 84.2526 64.8504L92.4126 60.9503C92.6926 60.8103 92.9126 60.6003 93.0326 60.3303C93.1626 60.0703 93.2026 59.7703 93.1326 59.4603L91.8826 53.9203ZM89.3226 53.9203H84.0926C82.5125 57.7303 80.2125 61.1503 77.3425 64.0104C71.7425 69.6204 63.9924 73.0904 55.4324 73.0904C46.8723 73.0904 39.1222 69.6204 33.5122 64.0104C30.6522 61.1503 28.3422 57.7303 26.7721 53.9203H21.4321L20.2721 58.9103L27.8222 62.5604C28.1822 62.7404 28.4822 62.9804 28.7222 63.2704C28.9522 63.5704 29.1222 63.9204 29.2122 64.3104L31.0522 72.4904L39.4322 72.5104C39.8422 72.5204 40.2122 72.6004 40.5522 72.7704C40.8922 72.9304 41.1922 73.1704 41.4422 73.4904L46.6523 80.0605L54.2223 76.4405C54.5823 76.2705 54.9523 76.1805 55.3323 76.1805C55.7124 76.1805 56.0924 76.2705 56.4524 76.4505L63.9924 80.1105L69.2424 73.5604C69.4924 73.2504 69.7924 73.0104 70.1325 72.8504L70.1925 72.8204C70.5225 72.6804 70.8725 72.6004 71.2525 72.6004L79.6425 72.6304L81.5225 64.4604C81.6125 64.0604 81.7825 63.7204 82.0225 63.4204C82.2525 63.1304 82.5625 62.8904 82.9225 62.7104L90.4926 59.1003L89.3226 53.9203ZM82.6825 53.9203H28.1722C29.6722 57.3703 31.8022 60.4803 34.4222 63.1004C39.8022 68.4704 47.2223 71.8004 55.4324 71.8004C63.6324 71.8004 71.0625 68.4704 76.4325 63.1004C79.0525 60.4803 81.1825 57.3703 82.6825 53.9203ZM66.1524 64.9404L67.2124 62.9204L69.4624 62.5304L67.8624 60.9003L68.1924 58.6403L66.1524 59.6503L64.1024 58.6403L64.4324 60.9003L62.8424 62.5304L65.0924 62.9204L66.1524 64.9404ZM44.6623 64.9404L45.7223 62.9204L47.9723 62.5304L46.3823 60.9003L46.7123 58.6403L44.6623 59.6503L42.6123 58.6403L42.9423 60.9003L41.3522 62.5304L43.6023 62.9204L44.6623 64.9404ZM55.4324 68.0304L56.9524 65.1304L60.1724 64.5804L57.8924 62.2404L58.3624 59.0003L55.4324 60.4503L52.5023 59.0003L52.9723 62.2404L50.6823 64.5804L53.9123 65.1304L55.4324 68.0304ZM66.1524 19.55L67.2124 21.5701L69.4624 21.9501L67.8624 23.5801L68.1924 25.8401L66.1524 24.8301L64.1024 25.8401L64.4324 23.5801L62.8424 21.9501L65.0924 21.5701L66.1524 19.55ZM44.6623 19.55L45.7223 21.5701L47.9723 21.9501L46.3823 23.5801L46.7123 25.8401L44.6623 24.8301L42.6123 25.8401L42.9423 23.5801L41.3522 21.9501L43.6023 21.5701L44.6623 19.55Z" fill="#BD9C86"/>
    </symbol>
    <symbol id="list" viewBox="0 0 28 36">
        <path d="M25.1969 1.24406H23.9139V0.583153C23.9139 0.261019 23.6529 0 23.3308 0C23.0086 0 22.7476 0.261019 22.7476 0.583153V1.24406H20.1817V0.583153C20.1817 0.261019 19.9207 0 19.5986 0C19.2765 0 19.0154 0.261019 19.0154 0.583153V1.24406H16.4496V0.583153C16.4496 0.261019 16.1885 0 15.8664 0C15.5443 0 15.2833 0.261019 15.2833 0.583153V1.24406H12.7174V0.583153C12.7174 0.261019 12.4564 0 12.1342 0C11.8121 0 11.5511 0.261019 11.5511 0.583153V1.24406H8.9852V0.583153C8.9852 0.261019 8.72418 0 8.40205 0C8.07991 0 7.81889 0.261019 7.81889 0.583153V1.24406H5.25302V0.583153C5.25302 0.261019 4.992 0 4.66987 0C4.34773 0 4.08671 0.261019 4.08671 0.583153V1.24406H2.80378C1.79624 1.24406 0.976562 2.06374 0.976562 3.07127V34.1728C0.976562 35.1803 1.79624 36 2.80378 36H25.1969C26.2044 36 27.0241 35.1803 27.0241 34.1728V3.07127C27.0241 2.06374 26.2044 1.24406 25.1969 1.24406ZM25.8578 34.1728C25.8578 34.5372 25.5613 34.8337 25.1969 34.8337H2.80378C2.43934 34.8337 2.14287 34.5372 2.14287 34.1728V3.07127C2.14287 2.70684 2.43934 2.41037 2.80378 2.41037H4.08671V3.07127C4.08671 3.39341 4.34773 3.65443 4.66987 3.65443C4.992 3.65443 5.25302 3.39341 5.25302 3.07127V2.41037H7.81889V3.07127C7.81889 3.39341 8.07991 3.65443 8.40205 3.65443C8.72418 3.65443 8.9852 3.39341 8.9852 3.07127V2.41037H11.5511V3.07127C11.5511 3.39341 11.8121 3.65443 12.1342 3.65443C12.4564 3.65443 12.7174 3.39341 12.7174 3.07127V2.41037H15.2833V3.07127C15.2833 3.39341 15.5443 3.65443 15.8664 3.65443C16.1885 3.65443 16.4496 3.39341 16.4496 3.07127V2.41037H19.0154V3.07127C19.0154 3.39341 19.2765 3.65443 19.5986 3.65443C19.9207 3.65443 20.1817 3.39341 20.1817 3.07127V2.41037H22.7476V3.07127C22.7476 3.39341 23.0086 3.65443 23.3308 3.65443C23.6529 3.65443 23.9139 3.39341 23.9139 3.07127V2.41037H25.1969C25.5613 2.41037 25.8578 2.70684 25.8578 3.07127V34.1728Z"/>
        <path d="M12.1339 9.25272H20.8424C21.1645 9.25272 21.4255 8.9917 21.4255 8.66956C21.4255 8.34743 21.1645 8.08641 20.8424 8.08641H12.1339C11.8118 8.08641 11.5508 8.34743 11.5508 8.66956C11.5508 8.9917 11.8118 9.25272 12.1339 9.25272Z"/>
        <path d="M23.3305 10.5745H12.1339C11.8118 10.5745 11.5508 10.8355 11.5508 11.1577C11.5508 11.4798 11.8118 11.7408 12.1339 11.7408H23.3305C23.6526 11.7408 23.9136 11.4798 23.9136 11.1577C23.9136 10.8355 23.6526 10.5745 23.3305 10.5745Z"/>
        <path d="M9.23486 7.6351L6.53712 10.333L5.08343 8.87924C4.85561 8.65158 4.48644 8.65158 4.2587 8.87924C4.03096 9.10706 4.03096 9.47623 4.2587 9.70398L6.12479 11.5701C6.2387 11.6839 6.38798 11.7408 6.53719 11.7408C6.6864 11.7408 6.83569 11.6839 6.9496 11.5701L10.0597 8.45992C10.2875 8.2321 10.2875 7.86292 10.0597 7.63518C9.83185 7.40752 9.46268 7.40752 9.23486 7.6351Z" />
        <path d="M12.1339 15.473H20.8424C21.1645 15.473 21.4255 15.212 21.4255 14.8899C21.4255 14.5677 21.1645 14.3067 20.8424 14.3067H12.1339C11.8118 14.3067 11.5508 14.5677 11.5508 14.8899C11.5508 15.212 11.8118 15.473 12.1339 15.473Z"/>
        <path d="M23.3305 16.7948H12.1339C11.8118 16.7948 11.5508 17.0558 11.5508 17.378C11.5508 17.7001 11.8118 17.9611 12.1339 17.9611H23.3305C23.6526 17.9611 23.9136 17.7001 23.9136 17.378C23.9136 17.0558 23.6526 16.7948 23.3305 16.7948Z"/>
        <path d="M9.23486 13.8554L6.53712 16.5533L5.08343 15.0995C4.85561 14.8719 4.48644 14.8719 4.2587 15.0995C4.03096 15.3274 4.03096 15.6965 4.2587 15.9243L6.12479 17.7904C6.2387 17.9042 6.38798 17.9611 6.53719 17.9611C6.6864 17.9611 6.83569 17.9042 6.9496 17.7904L10.0597 14.6802C10.2875 14.4524 10.2875 14.0832 10.0597 13.8555C9.83185 13.6278 9.46268 13.6278 9.23486 13.8554Z"/>
        <path d="M12.1339 21.6933H20.8424C21.1645 21.6933 21.4255 21.4323 21.4255 21.1102C21.4255 20.788 21.1645 20.527 20.8424 20.527H12.1339C11.8118 20.527 11.5508 20.788 11.5508 21.1102C11.5508 21.4323 11.8118 21.6933 12.1339 21.6933Z"/>
        <path d="M23.3305 23.0151H12.1339C11.8118 23.0151 11.5508 23.2761 11.5508 23.5983C11.5508 23.9204 11.8118 24.1814 12.1339 24.1814H23.3305C23.6526 24.1814 23.9136 23.9204 23.9136 23.5983C23.9136 23.2761 23.6526 23.0151 23.3305 23.0151Z"/>
        <path d="M9.23486 20.0757L6.53712 22.7736L5.08343 21.3198C4.85561 21.0922 4.48644 21.0922 4.2587 21.3198C4.03096 21.5477 4.03096 21.9168 4.2587 22.1446L6.12479 24.0107C6.2387 24.1245 6.38798 24.1814 6.53719 24.1814C6.6864 24.1814 6.83569 24.1245 6.9496 24.0107L10.0597 20.9005C10.2875 20.6727 10.2875 20.3035 10.0597 20.0758C9.83185 19.8481 9.46268 19.8481 9.23486 20.0757Z" fill="#BE9D86"/>
        <path d="M12.1339 27.9136H20.8424C21.1645 27.9136 21.4255 27.6526 21.4255 27.3305C21.4255 27.0083 21.1645 26.7473 20.8424 26.7473H12.1339C11.8118 26.7473 11.5508 27.0083 11.5508 27.3305C11.5508 27.6526 11.8118 27.9136 12.1339 27.9136Z"/>
        <path d="M23.3305 29.2354H12.1339C11.8118 29.2354 11.5508 29.4965 11.5508 29.8186C11.5508 30.1407 11.8118 30.4017 12.1339 30.4017H23.3305C23.6526 30.4017 23.9136 30.1407 23.9136 29.8186C23.9136 29.4965 23.6526 29.2354 23.3305 29.2354Z"/>
        <path d="M9.23486 26.296L6.53712 28.9939L5.08343 27.5402C4.85561 27.3125 4.48644 27.3125 4.2587 27.5402C4.03096 27.768 4.03096 28.1371 4.2587 28.3649L6.12479 30.231C6.2387 30.3448 6.38798 30.4017 6.53719 30.4017C6.6864 30.4017 6.83569 30.3448 6.9496 30.231L10.0597 27.1208C10.2875 26.893 10.2875 26.5238 10.0597 26.2961C9.83185 26.0684 9.46268 26.0684 9.23486 26.296Z"/>
    </symbol>
    <symbol id="facebook" viewBox="0 0 35 35">
        <path d="M20.6987 10.0031L18.7799 10C16.6242 10 15.231 11.4489 15.231 13.6915V15.3936H13.3017C13.135 15.3936 13 15.5306 13 15.6996V18.1656C13 18.3346 13.1352 18.4715 13.3017 18.4715H15.231V24.6941C15.231 24.8631 15.366 25 15.5327 25H18.0499C18.2166 25 18.3517 24.863 18.3517 24.6941V18.4715H20.6075C20.7742 18.4715 20.9092 18.3346 20.9092 18.1656L20.9101 15.6996C20.9101 15.6184 20.8782 15.5407 20.8217 15.4833C20.7652 15.4259 20.6883 15.3936 20.6082 15.3936H18.3517V13.9507C18.3517 13.2572 18.5147 12.9052 19.4058 12.9052L20.6984 12.9047C20.865 12.9047 21 12.7677 21 12.5989V10.309C21 10.1403 20.8652 10.0034 20.6987 10.0031Z"/>
    </symbol>
    <symbol id="twitter" viewBox="0 0 35 35">
        <path d="M26 14.4205C25.4113 14.6614 24.7787 14.8243 24.1147 14.8975C24.7924 14.5226 25.3129 13.9289 25.558 13.2215C24.9237 13.5687 24.2212 13.8208 23.4735 13.9566C22.8747 13.3679 22.0216 13 21.0774 13C19.2646 13 17.7949 14.3563 17.7949 16.0293C17.7949 16.2668 17.8239 16.498 17.8799 16.7197C15.1517 16.5933 12.733 15.3873 11.114 13.5544C10.8314 14.0019 10.6695 14.5223 10.6695 15.0775C10.6695 16.1285 11.249 17.0558 12.1298 17.599C11.5917 17.5833 11.0856 17.447 10.643 17.2201C10.6427 17.2327 10.6427 17.2454 10.6427 17.2582C10.6427 18.726 11.7742 19.9503 13.2759 20.2287C13.0005 20.2979 12.7104 20.335 12.4111 20.335C12.1995 20.335 11.9939 20.316 11.7934 20.2806C12.2112 21.4841 13.4234 22.3601 14.8599 22.3844C13.7364 23.197 12.321 23.6813 10.7831 23.6813C10.5181 23.6813 10.2568 23.667 10 23.6388C11.4527 24.4985 13.1781 25 15.0319 25C21.0697 25 24.3715 20.3838 24.3715 16.3806C24.3715 16.2492 24.3683 16.1186 24.362 15.9886C25.0034 15.5615 25.5599 15.028 26 14.4205Z"/>
    </symbol>
    <symbol id="vk" viewBox="0 0 35 35">
        <path d="M25.9151 22.128C25.8958 22.0868 25.8777 22.0527 25.8609 22.0253C25.5833 21.5324 25.0528 20.9274 24.2698 20.2101L24.2533 20.1937L24.245 20.1856L24.2366 20.1774H24.2282C23.8728 19.8433 23.6478 19.6188 23.5535 19.5038C23.3811 19.2848 23.3424 19.0631 23.4367 18.8384C23.5033 18.6687 23.7534 18.3103 24.1864 17.7626C24.4142 17.4724 24.5946 17.2398 24.7279 17.0646C25.6887 15.8052 26.1053 15.0004 25.9775 14.6499L25.9279 14.568C25.8945 14.5187 25.8084 14.4736 25.6698 14.4325C25.5308 14.3914 25.3531 14.3846 25.1364 14.412L22.7373 14.4283C22.6985 14.4147 22.643 14.416 22.5707 14.4325C22.4984 14.4489 22.4623 14.4572 22.4623 14.4572L22.4206 14.4777L22.3874 14.5025C22.3596 14.5188 22.3291 14.5475 22.2957 14.5886C22.2626 14.6295 22.2348 14.6776 22.2126 14.7323C21.9514 15.3949 21.6545 16.0108 21.3212 16.5802C21.1157 16.9198 20.9269 17.214 20.7546 17.4632C20.5825 17.7122 20.4381 17.8957 20.3215 18.0134C20.2048 18.1311 20.0995 18.2254 20.0049 18.2967C19.9104 18.368 19.8383 18.3981 19.7884 18.3871C19.7384 18.376 19.6913 18.3651 19.6466 18.3542C19.5689 18.3049 19.5064 18.2378 19.4593 18.153C19.412 18.0681 19.3801 17.9613 19.3635 17.8326C19.3469 17.7039 19.3371 17.5931 19.3343 17.5C19.3317 17.407 19.3329 17.2754 19.3385 17.1057C19.3443 16.9359 19.3469 16.821 19.3469 16.7608C19.3469 16.5527 19.351 16.3268 19.3593 16.0832C19.3677 15.8395 19.3745 15.6465 19.3802 15.5043C19.3858 15.3619 19.3884 15.2113 19.3884 15.0525C19.3884 14.8937 19.3786 14.7692 19.3593 14.6788C19.3401 14.5885 19.3107 14.5009 19.272 14.4159C19.2331 14.3311 19.1761 14.2654 19.1012 14.2188C19.0263 14.1723 18.9331 14.1353 18.8222 14.1079C18.5278 14.0422 18.153 14.0067 17.6975 14.0012C16.6645 13.9902 16.0008 14.056 15.7065 14.1984C15.5899 14.2585 15.4843 14.3407 15.39 14.4447C15.29 14.5652 15.276 14.6309 15.3482 14.6417C15.6815 14.691 15.9174 14.8087 16.0563 14.9949L16.1063 15.0935C16.1452 15.1647 16.1841 15.2907 16.223 15.4713C16.2618 15.652 16.2869 15.8518 16.2979 16.0707C16.3256 16.4705 16.3256 16.8127 16.2979 17.0974C16.2701 17.3822 16.2438 17.6039 16.2188 17.7627C16.1937 17.9215 16.1563 18.0501 16.1063 18.1486C16.0563 18.2472 16.023 18.3074 16.0063 18.3293C15.9896 18.3512 15.9757 18.3649 15.9647 18.3704C15.8925 18.3976 15.8174 18.4115 15.7397 18.4115C15.6619 18.4115 15.5676 18.3731 15.4565 18.2965C15.3455 18.2198 15.2303 18.1144 15.1108 17.9802C14.9914 17.8461 14.8567 17.6585 14.7067 17.4176C14.5568 17.1767 14.4013 16.892 14.2403 16.5635L14.107 16.3253C14.0237 16.172 13.9099 15.9488 13.7655 15.656C13.621 15.363 13.4933 15.0796 13.3823 14.8058C13.3379 14.6908 13.2712 14.6033 13.1824 14.543L13.1407 14.5183C13.113 14.4965 13.0685 14.4733 13.0074 14.4485C12.9463 14.4238 12.8825 14.4061 12.8158 14.3952L10.5333 14.4115C10.3 14.4115 10.1417 14.4636 10.0584 14.5677L10.0251 14.6169C10.0084 14.6443 10 14.6881 10 14.7484C10 14.8086 10.0167 14.8825 10.05 14.9701C10.3832 15.7422 10.7456 16.4868 11.1371 17.204C11.5286 17.9213 11.8688 18.4991 12.1575 18.9369C12.4463 19.3749 12.7407 19.7884 13.0406 20.177C13.3405 20.5658 13.539 20.815 13.6362 20.9244C13.7334 21.0341 13.8098 21.1161 13.8653 21.1708L14.0736 21.3679C14.2069 21.4993 14.4026 21.6567 14.6609 21.8401C14.9192 22.0236 15.2052 22.2043 15.519 22.3824C15.8328 22.5602 16.1979 22.7053 16.6145 22.8175C17.031 22.9298 17.4364 22.9749 17.8307 22.9532H18.7887C18.983 22.9366 19.1302 22.8764 19.2303 22.7724L19.2634 22.7313C19.2857 22.6986 19.3066 22.6478 19.3259 22.5795C19.3453 22.511 19.355 22.4356 19.355 22.3536C19.3493 22.1182 19.3675 21.9061 19.4091 21.7172C19.4506 21.5284 19.4979 21.386 19.5508 21.2901C19.6037 21.1943 19.6634 21.1135 19.7299 21.048C19.7965 20.9823 19.8439 20.9425 19.8717 20.9288C19.8994 20.915 19.9215 20.9057 19.9382 20.9001C20.0714 20.8563 20.2283 20.8987 20.409 21.0275C20.5895 21.1562 20.7588 21.315 20.9172 21.5039C21.0755 21.6929 21.2657 21.9049 21.4878 22.1403C21.71 22.3758 21.9043 22.5508 22.0709 22.666L22.2374 22.7645C22.3487 22.8303 22.4931 22.8905 22.6708 22.9453C22.8482 23 23.0037 23.0137 23.1372 22.9863L25.2697 22.9535C25.4807 22.9535 25.6448 22.9191 25.7612 22.8508C25.8779 22.7823 25.9472 22.7069 25.9695 22.6249C25.9918 22.5428 25.993 22.4497 25.9737 22.3455C25.954 22.2417 25.9345 22.169 25.9151 22.128Z"/>
    </symbol>
    <symbol id="xz" viewBox="0 0 35 35">
        <path d="M23.1595 15.875H22.4459H22.4307C21.9843 15.875 21.593 15.4974 21.5625 15.0625C21.5625 12.7435 19.693 11 17.3579 11H15.2274C12.8938 11 11.0016 12.8789 11 15.1979V19.8038C11 22.1226 12.8938 24 15.2273 24H19.7776C22.1129 24 24 22.1226 24 19.8038V16.8282C24 16.3648 23.6262 15.875 23.1595 15.875ZM15.0625 14.25H17.5C17.9469 14.25 18.3125 14.6156 18.3125 15.0625C18.3125 15.5094 17.9469 15.875 17.5 15.875H15.0625C14.6156 15.875 14.25 15.5094 14.25 15.0625C14.25 14.6156 14.6156 14.25 15.0625 14.25ZM19.9375 20.75H15.0625C14.6156 20.75 14.25 20.3844 14.25 19.9375C14.25 19.4906 14.6156 19.125 15.0625 19.125H19.9375C20.3844 19.125 20.75 19.4906 20.75 19.9375C20.75 20.3844 20.3844 20.75 19.9375 20.75Z"/>
    </symbol>
    <symbol id="heart" viewBox="0 0 56 44" fill="none">
        <path d="M54.7505 19.4482L54.759 19.4229C55.2483 17.9743 55.5 16.4688 55.5 14.9434C55.5 9.65874 52.5978 4.79024 47.9248 2.23469L47.9243 2.23444C42.5016 -0.738413 35.3268 0.198145 30.8662 4.37119L30.5251 4.6903L30.1835 4.37167C25.7099 0.198334 18.5295 -0.738107 13.1169 2.23427L13.1161 2.23468C8.43736 4.79365 5.54444 9.65847 5.54444 14.9398C5.54444 16.462 5.78878 17.9679 6.2346 19.2515L6.24385 19.2782L6.25005 19.3057C6.41528 20.0394 6.68429 20.8081 7.02472 21.6145L7.31791 22.3089H6.56409H1.66917C1.02691 22.3089 0.5 22.8336 0.5 23.466C0.5 24.0996 1.02633 24.6227 1.66949 24.6231H21.1369C21.6066 24.6231 22.026 24.3515 22.2105 23.9272L22.211 23.9262L23.9897 19.8615L24.5875 18.4956L24.9341 19.9457L27.1844 29.3595C27.1845 29.36 27.1847 29.3606 27.1848 29.3611C27.2987 29.8193 27.6678 30.1622 28.1395 30.2379C28.1962 30.2465 28.2586 30.2515 28.3235 30.2515C28.7236 30.2515 29.1017 30.0434 29.3168 29.6929C29.3168 29.6929 29.3168 29.6929 29.3168 29.6928L34.117 21.8651L34.2633 21.6265H34.5432H39.6532C40.3005 21.6265 40.8218 21.1033 40.8218 20.4694C40.8218 19.8315 40.3012 19.3117 39.6532 19.3117H33.6062C33.1942 19.3117 32.817 19.5241 32.6088 19.8656L32.6079 19.8671L29.4215 25.0543L28.7891 26.0837L28.509 24.9084L26.0458 14.5696L26.0448 14.5656L26.0449 14.5656C25.9348 14.0862 25.5199 13.7259 25.0141 13.6821L25.0054 13.6814L25.0054 13.6813C24.5252 13.6313 24.0423 13.9146 23.84 14.3759L20.4939 22.0102L20.3628 22.3095H20.036H10.2926H9.99533L9.85334 22.0483C9.24375 20.927 8.74851 19.8188 8.4849 18.6696C8.08818 17.4605 7.87385 16.2048 7.87385 14.9404C7.87385 10.5009 10.3107 6.40979 14.2426 4.26126C19.2487 1.51184 25.9336 2.77206 29.6113 7.1619C30.0572 7.68672 30.9886 7.68077 31.418 7.16439L31.4187 7.16347C35.0855 2.77526 41.7765 1.50482 46.79 4.26637C50.71 6.41048 53.1462 10.504 53.1462 14.9469C53.1462 16.221 52.9414 17.472 52.4949 18.8342C52.049 20.8082 50.8351 22.9112 49.2133 24.9973C47.5794 27.0992 45.5024 29.2206 43.2946 31.2224C38.879 35.2259 33.9023 38.7848 30.7975 40.7945L30.5235 40.9718L30.2508 40.7923C28.4061 39.5777 23.9622 36.5627 19.561 32.8301M54.7505 19.4482L19.8823 32.447M54.7505 19.4482L54.7447 19.4743C54.1757 22.0302 52.5036 24.7678 50.2465 27.4676C47.9961 30.1593 45.199 32.7726 42.4372 35.08C36.9227 39.687 31.5922 43.0386 31.1464 43.3187M54.7505 19.4482L55.2327 19.5829M19.561 32.8301C19.5603 32.8295 19.5596 32.8289 19.5589 32.8283L19.8823 32.447M19.561 32.8301C19.5615 32.8306 19.5621 32.831 19.5626 32.8315L19.8823 32.447M19.561 32.8301C19.0665 32.4203 18.3332 32.4779 17.9067 32.9611M19.8823 32.447C19.1776 31.8609 18.1327 31.9449 17.5281 32.6345M17.9067 32.9611C17.9075 32.9601 17.9084 32.9591 17.9093 32.9581L17.5281 32.6345M17.9067 32.9611C17.4961 33.4482 17.5486 34.1693 18.0395 34.59M17.9067 32.9611C17.9058 32.9621 17.9049 32.9631 17.904 32.9641L17.5281 32.6345M17.5281 32.6345L18.0395 34.59M18.0395 34.59C18.0393 34.5898 18.039 34.5896 18.0388 34.5894L17.7151 34.9705L18.0402 34.5906C18.04 34.5904 18.0397 34.5902 18.0395 34.59ZM18.0395 34.59C23.6434 39.3495 29.1755 42.8674 29.8343 43.2864C29.8629 43.3046 29.8824 43.317 29.8922 43.3233L29.8944 43.3247C30.0758 43.4433 30.2889 43.5 30.5175 43.5C30.7344 43.5 30.9501 43.4393 31.1464 43.3187M18.0395 34.59L29.6209 43.7433C29.8943 43.9219 30.2053 44 30.5175 44C30.8302 44 31.137 43.9119 31.4104 43.7433M31.1464 43.3187C31.1459 43.319 31.1454 43.3194 31.1449 43.3197L31.1444 43.32L31.4104 43.7433M31.1464 43.3187C31.1469 43.3184 31.1475 43.318 31.1481 43.3177L31.4104 43.7433M31.4104 43.7433L31.411 43.743C32.2941 43.188 52.8546 30.2655 55.2327 19.5829M55.2327 19.5829C55.7391 18.0837 56 16.5242 56 14.9434C56 9.47413 52.9964 4.43837 48.1647 1.796L55.2327 19.5829ZM31.8024 7.48408C31.1709 8.24343 29.8723 8.24343 29.2289 7.48408C25.7041 3.27568 19.2795 2.06509 14.4828 4.69977L31.8024 7.48408Z" fill="#BE9D86" stroke="white"/>
    </symbol>
    <symbol id="aparat" viewBox="0 0 45 45">
        <path d="M16.414 42.4663L16.4046 42.4569L16.3945 42.4482C15.905 42.0224 15.5276 41.3428 15.246 40.5161C14.9664 39.6953 14.794 38.7674 14.6897 37.8866C14.5856 37.0076 14.5508 36.187 14.5421 35.5855C14.5377 35.2851 14.5399 35.0403 14.5431 34.8711C14.5448 34.7866 14.5466 34.721 14.5481 34.677L14.5499 34.6274L14.5504 34.6153L14.5505 34.6126L14.5505 34.612L14.5505 34.6119L14.5697 34.1937H14.1509C8.80877 34.1937 3.3354 29.4527 1.3151 21.5901L1.59308 21.452L1.87625 21.3113L1.80473 21.0033C0.959463 17.3634 0.4 13.4584 0.4 10.6875C0.4 7.67659 1.22086 5.55249 3.08956 3.96076C4.98884 2.34298 7.15727 1.80625 8.77359 1.80625H8.98691L9.10576 1.62909C9.60983 0.877711 10.3427 0.4 11.3208 0.4C12.0797 0.4 12.6807 0.64971 13.0907 1.05717C13.5005 1.4644 13.7509 2.06041 13.7509 2.8125C13.7509 3.56459 13.5005 4.1606 13.0907 4.56783C12.6807 4.97529 12.0797 5.225 11.3208 5.225C10.3198 5.225 9.65225 4.73671 9.43584 4.09154L9.32389 3.7578L8.97863 3.82642C8.89377 3.84329 8.80713 3.86024 8.71897 3.87749C7.38561 4.13835 5.70425 4.46729 4.54527 5.6068C3.79975 6.20335 3.2649 6.88543 2.92021 7.72273C2.57528 8.56061 2.43019 9.53113 2.43019 10.6875C2.43019 13.2638 3.00407 16.9546 3.85565 20.6217L3.97011 21.1146L4.42327 20.8895L4.55978 20.8216C5.03728 22.4067 5.93822 24.713 7.35063 26.7041C8.90662 28.8976 11.1344 30.775 14.1509 30.775H16.9811C19.9977 30.775 22.2255 28.8976 23.7814 26.7041C25.1939 24.713 26.0948 22.4067 26.5723 20.8216L26.7088 20.8895L27.162 21.1146L27.2764 20.6217C28.128 16.9546 28.7019 13.2638 28.7019 10.6875C28.7019 9.53113 28.5568 8.56061 28.2119 7.72273C27.8645 6.87903 27.3241 6.19293 26.5697 5.59314C25.1037 4.42773 23.6035 3.81875 22.0755 3.81875H21.7877L21.6962 4.09154C21.4798 4.73671 20.8123 5.225 19.8113 5.225C19.0524 5.225 18.4514 4.97529 18.0414 4.56783C17.6316 4.1606 17.3811 3.56459 17.3811 2.8125C17.3811 1.37373 18.5883 0.4 19.8113 0.4C20.7894 0.4 21.5222 0.877711 22.0263 1.62909L22.1452 1.80625H22.3585C23.9748 1.80625 26.1432 2.34298 28.0425 3.96076C29.9112 5.55249 30.7321 7.67659 30.7321 10.6875C30.7321 13.4587 30.1724 17.3625 29.3291 20.7149L29.2505 21.0274L29.539 21.1707L29.8193 21.31C27.8003 29.4524 22.3225 34.1937 16.9811 34.1937H16.6029L16.5818 34.5714L16.9811 34.5938C16.5818 34.5714 16.5818 34.5715 16.5817 34.5716L16.5817 34.5719L16.5817 34.5729L16.5815 34.5762L16.5809 34.5882L16.5788 34.6332C16.577 34.6723 16.5748 34.7291 16.5725 34.8015C16.5679 34.9463 16.5634 35.1538 16.5634 35.4067C16.5634 35.912 16.5814 36.6024 16.6538 37.3399C16.726 38.0751 16.8535 38.8699 17.0773 39.5789C17.2962 40.2723 17.6227 40.934 18.127 41.3588C18.7668 41.9865 19.9904 42.5875 21.2264 42.5875C23.4211 42.5875 25.1137 42.0027 26.2769 40.5771C27.4201 39.1759 27.9921 37.0315 28.1352 34.0543C28.276 31.9594 28.6259 30.0002 29.4608 28.5731C29.8746 27.8659 30.4035 27.2964 31.0813 26.9018C31.7586 26.5075 32.6069 26.275 33.6792 26.275C35.1106 26.275 36.1345 26.8501 36.8779 27.7174C37.6329 28.5981 38.1079 29.7936 38.3832 31.0248L38.4532 31.3375H38.7736H38.7752H38.7769H38.7785H38.7802H38.7818H38.7834H38.785H38.7866H38.7882H38.7898H38.7914H38.793H38.7946H38.7962H38.7977H38.7993H38.8009H38.8024H38.804H38.8055H38.807H38.8085H38.8101H38.8116H38.8131H38.8146H38.8161H38.8176H38.8191H38.8205H38.822H38.8235H38.8249H38.8264H38.8278H38.8293H38.8307H38.8322H38.8336H38.835H38.8364H38.8378H38.8392H38.8406H38.842H38.8434H38.8448H38.8462H38.8476H38.8489H38.8503H38.8517H38.853H38.8544H38.8557H38.857H38.8584H38.8597H38.861H38.8623H38.8636H38.865H38.8663H38.8676H38.8689H38.8701H38.8714H38.8727H38.874H38.8752H38.8765H38.8778H38.879H38.8803H38.8815H38.8828H38.884H38.8852H38.8865H38.8877H38.8889H38.8901H38.8913H38.8925H38.8937H38.8949H38.8961H38.8973H38.8985H38.8997H38.9008H38.902H38.9032H38.9044H38.9055H38.9067H38.9078H38.909H38.9101H38.9112H38.9124H38.9135H38.9146H38.9158H38.9169H38.918H38.9191H38.9202H38.9213H38.9224H38.9235H38.9246H38.9257H38.9268H38.9279H38.929H38.93H38.9311H38.9322H38.9332H38.9343H38.9353H38.9364H38.9375H38.9385H38.9395H38.9406H38.9416H38.9427H38.9437H38.9447H38.9457H38.9468H38.9478H38.9488H38.9498H38.9508H38.9518H38.9528H38.9538H38.9548H38.9558H38.9568H38.9578H38.9588H38.9598H38.9608H38.9617H38.9627H38.9637H38.9647H38.9656H38.9666H38.9676H38.9685H38.9695H38.9704H38.9714H38.9723H38.9733H38.9742H38.9752H38.9761H38.977H38.978H38.9789H38.9798H38.9808H38.9817H38.9826H38.9835H38.9845H38.9854H38.9863H38.9872H38.9881H38.989H38.9899H38.9908H38.9917H38.9926H38.9935H38.9944H38.9953H38.9962H38.9971H38.998H38.9989H38.9998H39.0007H39.0015H39.0024H39.0033H39.0042H39.0051H39.0059H39.0068H39.0077H39.0086H39.0094H39.0103H39.0112H39.012H39.0129H39.0138H39.0146H39.0155H39.0163H39.0172H39.0181H39.0189H39.0198H39.0206H39.0215H39.0223H39.0232H39.024H39.0249H39.0257H39.0266H39.0274H39.0282H39.0291H39.0299H39.0308H39.0316H39.0325H39.0333H39.0341H39.035H39.0358H39.0366H39.0375H39.0383H39.0392H39.04H39.0408H39.0417H39.0425H39.0433H39.0442H39.045H39.0458H39.0466H39.0475H39.0483H39.0491H39.05H39.0508H39.0516H39.0525H39.0533H39.0541H39.0549H39.0558H39.0566H39.0574H39.0583H39.0591H39.0599H39.0607H39.0616H39.0624H39.0632H39.0641H39.0649H39.0657H39.0666H39.0674H39.0682H39.0691H39.0699H39.0707H39.0716H39.0724H39.0732H39.0741H39.0749H39.0757H39.0766H39.0774H39.0782H39.0791H39.0799H39.0807H39.0816H39.0824H39.0833H39.0841H39.085H39.0858H39.0867H39.0875H39.0883H39.0892H39.09H39.0909H39.0917H39.0926H39.0934H39.0943H39.0952H39.096H39.0969H39.0977H39.0986H39.0994H39.1003H39.1012H39.102H39.1029H39.1038H39.1046H39.1055H39.1064H39.1073H39.1081H39.109H39.1099H39.1108H39.1117H39.1125H39.1134H39.1143H39.1152H39.1161H39.117H39.1179H39.1188H39.1197H39.1206H39.1215H39.1224H39.1233H39.1242H39.1251H39.126H39.1269H39.1278H39.1287H39.1297H39.1306H39.1315H39.1324H39.1334H39.1343H39.1352H39.1362H39.1371H39.138H39.139H39.1399H39.1409H39.1418H39.1428H39.1437H39.1447H39.1457H39.1466H39.1476H39.1485H39.1495H39.1505H39.1515H39.1524H39.1534H39.1544H39.1554H39.1564H39.1574H39.1584H39.1594H39.1604H39.1614H39.1624H39.1634H39.1644H39.1654H39.1664H39.1675H39.1685H39.1695H39.1705H39.1716H39.1726H39.1737H39.1747H39.1758H39.1768H39.1779H39.1789H39.18H39.181H39.1821H39.1832H39.1843H39.1853H39.1864H39.1875H39.1886H39.1897H39.1908H39.1919H39.193H39.1941H39.1952H39.1963H39.1974H39.1986H39.1997H39.2008H39.202H39.2031H39.2042H39.2054H39.2065H39.2077H39.2089H39.21H39.2112H39.2124H39.2135H39.2147H39.2159H39.2171H39.2183H39.2195H39.2207H39.2219H39.2231H39.2243H39.2255H39.2267H39.228H39.2292H39.2304H39.2317H39.2329H39.2342H39.2354H39.2367H39.238H39.2392H39.2405H39.2418H39.2431H39.2444H39.2457H39.2469H39.2483H39.2496H39.2509H39.2522H39.2535H39.2548H39.2562H39.2575H39.2589H39.2602H39.2616H39.2629H39.2643H39.2656H39.267H39.2684H39.2698H39.2712H39.2726H39.274H39.2754H39.2768H39.2782H39.2796H39.2811H39.2825H39.2839H39.2854H39.2868H39.2883H39.2897H39.2912H39.2927H39.2942H39.2956H39.2971H39.2986H39.3001H39.3016H39.3031H39.3047H39.3062H39.3077H39.3093H39.3108H39.3123H39.3139H39.3155H39.317H39.3186H39.3202H39.3218H39.3234H39.325H39.3266H39.3282H39.3298H39.3314H39.333H39.3347H39.3363H39.338H39.3396C42.2343 31.3375 44.6 33.692 44.6 36.5625C44.6 39.433 42.2343 41.7875 39.3396 41.7875C36.445 41.7875 34.0792 39.433 34.0792 36.5625C34.0792 34.7604 35.1139 33.1856 36.7304 32.1147L36.9094 31.9961V31.7812C36.9094 30.7771 36.7691 29.8934 36.3006 29.2586C35.8106 28.5946 35.0298 28.2875 33.9623 28.2875C33.9361 28.2875 33.9069 28.2871 33.875 28.2866C33.6843 28.2838 33.3967 28.2795 33.0966 28.3575C32.7259 28.4538 32.3433 28.6684 31.9894 29.1028C31.3062 29.9415 30.7345 31.596 30.4506 34.8401L30.4505 34.8401L30.4498 34.8499C30.3101 37.0719 29.8224 39.5133 28.4724 41.3915C27.1407 43.2443 24.9332 44.6 21.2264 44.6C19.1122 44.6 17.2269 43.274 16.414 42.4663ZM36.3925 36.5625C36.3925 37.4979 36.708 38.3082 37.2888 38.8853C37.8694 39.4622 38.6834 39.775 39.6226 39.775C41.2298 39.775 42.8528 38.4987 42.8528 36.5625C42.8528 35.6271 42.5373 34.8168 41.9565 34.2397C41.3759 33.6628 40.5618 33.35 39.6226 33.35C38.6834 33.35 37.8694 33.6628 37.2888 34.2397C36.708 34.8168 36.3925 35.6271 36.3925 36.5625Z" stroke-width="0.8"/>
    </symbol>

    <symbol id="small_arrow" viewBox="0 0 24 8">
        <path d="M23.3536 4.46641C23.5488 4.27115 23.5488 3.95456 23.3536 3.7593L20.1716 0.57732C19.9763 0.382058 19.6597 0.382058 19.4645 0.57732C19.2692 0.772582 19.2692 1.08916 19.4645 1.28443L22.2929 4.11285L19.4645 6.94128C19.2692 7.13654 19.2692 7.45313 19.4645 7.64839C19.6597 7.84365 19.9763 7.84365 20.1716 7.64839L23.3536 4.46641ZM0 4.61285H23V3.61285H0V4.61285Z" />
    </symbol>
    <symbol id="skrepka" viewBox="0 0 10 20">
        <path d="M8.94225 5.78581C8.59667 5.78581 8.31793 6.05336 8.31793 6.39919V15.4626C8.31793 16.388 7.98354 17.146 7.33685 17.7927C6.69015 18.4394 5.92101 18.7738 4.98467 18.7738C4.07043 18.7738 3.2901 18.4505 2.64343 17.8039C1.99676 17.1572 1.67353 16.3769 1.67353 15.4626V12.0402V10.2119V5.7078V3.54518V3.5228V3.50045C1.67353 2.88732 1.89924 2.35505 2.33138 1.91742C2.76901 1.47434 3.30103 1.23745 3.93677 1.23745C4.57227 1.23745 5.10455 1.47434 5.5419 1.91742C5.97404 2.35505 6.19978 2.88732 6.19978 3.50045V3.5228V3.5673V13.6791C6.19978 14.3143 5.70934 14.805 5.07386 14.805C4.46071 14.805 3.95889 14.2922 3.95889 13.6791V8.38343C3.95889 8.03785 3.69131 7.7703 3.34576 7.7703C3.0002 7.7703 2.73262 8.03785 2.73262 8.38343V13.6791C2.73262 14.3367 2.9557 14.8942 3.4126 15.3513C3.86972 15.8084 4.41603 16.0313 5.07389 16.0313C5.73149 16.0313 6.28349 15.8027 6.74609 15.3513C7.19776 14.9106 7.42609 14.3591 7.42609 13.6791V3.5228V3.50045C7.42609 2.54174 7.07765 1.71955 6.40053 1.03672C5.71768 0.348182 4.89548 0 3.93677 0C2.97782 0 2.15563 0.348182 1.4728 1.03672C0.7957 1.71955 0.447266 2.54174 0.447266 3.50045V3.5228V5.7078V10.2119V12.0402V15.4626C0.447266 16.7224 0.893201 17.7927 1.77391 18.6733C2.65462 19.554 3.72485 20 4.98467 20C6.2445 20 7.33685 19.5764 8.22874 18.6845C9.12061 17.7927 9.55539 16.7003 9.55539 15.4626V6.39919C9.55539 6.05336 9.28781 5.78581 8.94225 5.78581Z" fill="#BE9D86"/>
    </symbol>
    <symbol id="lupa" viewBox="0 0 25 25">
        <path d="M24.3156 20.9994L18.5802 15.2635C17.7256 16.5926 16.5947 17.723 15.2656 18.5776L21.0015 24.3135C21.9171 25.2289 23.4018 25.2289 24.3155 24.3135C25.2312 23.3995 25.2312 21.9148 24.3156 20.9994Z" fill="#BE9D86"/>
        <path d="M18.7499 9.37501C18.7499 4.1978 14.5523 0 9.375 0C4.19779 0 0 4.1978 0 9.37501C0 14.5522 4.19779 18.7498 9.375 18.7498C14.5523 18.7498 18.7499 14.5522 18.7499 9.37501ZM9.375 16.406C5.49774 16.406 2.34382 13.2523 2.34382 9.37506C2.34382 5.49779 5.49774 2.34387 9.375 2.34387C13.2522 2.34387 16.4064 5.49779 16.4064 9.37506C16.4064 13.2523 13.2522 16.406 9.375 16.406Z" fill="#BE9D86"/>
        <path d="M3.90625 9.37499H5.46855C5.46855 7.22114 7.22108 5.46877 9.37488 5.46877V3.90631C6.35986 3.90631 3.90625 6.35992 3.90625 9.37499Z" fill="#BE9D86"/>
    </symbol>
    <symbol id="messenger_bot" viewBox="0 0 35 35" fill="none">
        <rect width="34" height="34" stroke="#BE9D86" stroke-opacity="0"/>
        <path d="M17.4413 9C12.7868 9 9 12.5788 9 16.9778C9 19.3464 10.103 21.5773 12.0263 23.0982C12.2741 23.2941 12.6335 23.2521 12.8293 23.0044C13.0251 22.7568 12.9831 22.3973 12.7355 22.2015C11.0882 20.8987 10.1433 18.9948 10.1433 16.9779C10.1433 13.2092 13.4171 10.1433 17.4413 10.1433C21.4651 10.1433 24.7387 13.2092 24.7387 16.9778C24.7387 20.7467 21.4651 23.813 17.4413 23.813C16.7394 23.813 16.045 23.7198 15.3776 23.5359C15.2316 23.4957 15.0757 23.5151 14.944 23.5896L12.5764 24.9309C12.3017 25.0865 12.2051 25.4353 12.3607 25.7101C12.4659 25.8958 12.6594 26.0001 12.8586 26.0001C12.954 26.0001 13.0508 25.9761 13.1398 25.9257L15.3059 24.6986C16.0004 24.8697 16.7176 24.9563 17.4413 24.9563C22.0955 24.9563 25.882 21.3772 25.882 16.9778C25.882 12.5788 22.0955 9 17.4413 9Z" fill="#BE9D86"/>
        <path d="M17.6794 14.4764C17.4774 14.3827 17.2395 14.4149 17.0695 14.5589L12.6572 18.2979C12.4163 18.502 12.3865 18.8627 12.5906 19.1036C12.7947 19.3444 13.1555 19.3742 13.3963 19.1701L16.8674 16.2287V18.9613C16.8674 19.184 16.9966 19.3864 17.1987 19.48C17.2755 19.5156 17.3574 19.533 17.4389 19.533C17.5718 19.533 17.7033 19.4867 17.8086 19.3975L22.2213 15.6584C22.4621 15.4543 22.492 15.0937 22.2878 14.8527C22.0837 14.6119 21.7231 14.582 21.4822 14.7861L18.0106 17.7276V14.995C18.0107 14.7723 17.8815 14.57 17.6794 14.4764Z" fill="#BE9D86"/>
    </symbol>
    <symbol id="messenger_top" height="511pt" viewBox="1 0 511.99949 511" width="511pt">
        <path d="m437.015625 75.480469c-48.351563-48.355469-112.640625-74.980469-181.019531-74.980469-68.382813 0-132.667969 26.628906-181.023438 74.980469-42.667968 42.667969-68.96875 99.230469-74.058594 159.265625-4.863281 57.390625 9.777344 114.917968 41.292969 162.660156l-7.550781 63.777344c-.542969 4.5625 1.039062 9.121094 4.289062 12.367187 3.246094 3.25 7.808594 4.835938 12.371094 4.289063l63.777344-7.550782c41.738281 27.554688 90.949219 42.207032 141.015625 42.207032 7.203125 0 14.429687-.304688 21.644531-.914063 60.035156-5.089843 116.597656-31.390625 159.265625-74.058593 48.351563-48.355469 74.980469-112.640626 74.980469-181.023438 0-68.378906-26.628906-132.667969-74.984375-181.019531zm-21.210937 340.832031c-77.355469 77.351562-198.640626 88.328125-288.382813 26.097656-2.523437-1.746094-5.507813-2.671875-8.550781-2.671875-.585938 0-1.175782.03125-1.761719.101563l-50.425781 5.972656 5.972656-50.421875c.429688-3.636719-.484375-7.304687-2.570312-10.3125-62.230469-89.746094-51.253907-211.03125 26.101562-288.386719 88.117188-88.117187 231.496094-88.117187 319.617188 0 88.117187 88.121094 88.117187 231.5 0 319.621094zm0 0"/>
        <path d="m369.554688 187.5625-84.214844 43.425781-43.488282-41.007812c-5.988281-5.644531-15.40625-5.414063-21.105468.523437l-106.824219 111.214844c-5.148437 5.355469-5.59375 13.675781-1.054687 19.558594 2.929687 3.789062 7.359374 5.832031 11.882812 5.832031 2.488281 0 5.003906-.617187 7.308594-1.90625l89.320312-49.914063 44.65625 47.136719c2.882813 3.042969 6.875 4.753907 11.101563 4.679688 4.195312-.058594 8.171875-1.871094 10.96875-4.996094l99.503906-111.210937c4.824219-5.390626 5.113281-13.457032.6875-19.179688-4.429687-5.722656-12.304687-7.46875-18.742187-4.15625zm-92.945313 102.402344-41.476563-43.777344c-2.910156-3.074219-6.875-4.6875-10.894531-4.6875-2.496093 0-5.015625.625-7.3125 1.90625l-11.65625 6.515625 26.8125-27.917969 40.402344 38.097656c4.632813 4.363282 11.511719 5.332032 17.164063 2.417969l21.378906-11.023437zm0 0"/>
    </symbol>
    <symbol id="instagram" viewBox="0 0 26 26" >
        <path d="M21.5443 3.25565H19.1876C18.4177 3.25565 17.791 3.88245 17.791 4.65231V7.00843C17.791 7.77828 18.4178 8.40508 19.1876 8.40508H21.5443C22.3142 8.40508 22.941 7.77828 22.941 7.00843V4.65231C22.941 3.88241 22.3142 3.25565 21.5443 3.25565ZM21.718 7.00843C21.718 7.10444 21.6403 7.18208 21.5443 7.18208H19.1876C19.0916 7.18208 19.0139 7.1044 19.0139 7.00843V4.65231C19.0139 4.55629 19.0922 4.47865 19.1876 4.47865H21.5443C21.6397 4.47865 21.718 4.55633 21.718 4.65231V7.00843ZM20.1795 0H5.5035C2.46921 0 0 2.46922 0 5.5035V19.5679C0 22.6023 2.46921 25.0714 5.5035 25.0714H20.1795C23.2137 25.0714 25.683 22.6023 25.683 19.5679V5.5035C25.683 2.46922 23.2137 0 20.1795 0ZM24.4599 19.5679C24.4599 21.9283 22.5398 23.8484 20.1795 23.8484H5.5035C3.1431 23.8484 1.223 21.9283 1.223 19.5679V10.3955H7.38754C6.22081 11.6955 5.5035 13.4071 5.5035 15.2874C5.5035 19.3338 8.79519 22.6254 12.8415 22.6254C16.8878 22.6254 20.1795 19.3337 20.1795 15.2874C20.1795 13.4071 19.4621 11.6955 18.2954 10.3955H24.4599V19.5679ZM12.8415 9.17247C16.2133 9.17247 18.9565 11.9157 18.9565 15.2874C18.9565 18.6593 16.2133 21.4025 12.8415 21.4025C9.46967 21.4025 6.7265 18.6593 6.7265 15.2874C6.7265 11.9157 9.46967 9.17247 12.8415 9.17247ZM24.4599 9.17247H16.889C15.7277 8.40135 14.3372 7.94946 12.8415 7.94946C11.3464 7.94946 9.95521 8.40135 8.79398 9.17247H1.223V5.5035C1.223 3.1431 3.1431 1.223 5.5035 1.223H20.1795C22.5398 1.223 24.4599 3.1431 24.4599 5.5035V9.17247ZM12.8415 19.5679C15.2019 19.5679 17.122 17.6478 17.122 15.2874C17.122 12.9271 15.2019 11.007 12.8415 11.007C10.4811 11.007 8.56098 12.9271 8.56098 15.2874C8.56098 17.6478 10.4811 19.5679 12.8415 19.5679ZM12.8415 12.23C14.5274 12.23 15.899 13.6016 15.899 15.2874C15.899 16.9734 14.5274 18.3449 12.8415 18.3449C11.1556 18.3449 9.78399 16.9733 9.78399 15.2874C9.78399 13.6016 11.1556 12.23 12.8415 12.23Z" fill="#BE9D86"/>
    </symbol>
</svg>













